fpga/top_tb.vcd
$date
	Tue Jan 22 23:18:55 2019
$end
$version
	Icarus Verilog
$end
$timescale
	1s
$end
$scope module top_tb $end
$var wire 1 ! io_power_sda $end
$var wire 1 " io_sda $end
$var reg 1 # clk_100mhz $end
$var reg 1 $ hostSdaReq $end
$var reg 1 % io_scl $end
$var reg 1 & powerSdaReq $end
$scope module INST $end
$var wire 1 # clk_100mhz $end
$var wire 1 ' clk_16mhz $end
$var wire 1 ( hostSdaIn $end
$var wire 1 ! io_power_sda $end
$var wire 1 % io_scl $end
$var wire 1 " io_sda $end
$var wire 1 ) led1 $end
$var wire 1 * pll_locked $end
$var wire 1 + powerSdaIn $end
$var wire 1 , sdaLow3 $end
$var wire 1 - sdaLow2 $end
$var wire 1 . sdaLow1 $end
$var wire 1 / proxySdaLow $end
$var wire 1 0 powerSdaOutEn $end
$var wire 8 1 newMem [7:0] $end
$var wire 8 2 ledOut [7:0] $end
$var wire 1 3 io_power_scl $end
$var wire 1 4 hostSdaOutEn $end
$var wire 1 5 gpio_21 $end
$var wire 1 6 clk_uart_115200 $end
$var wire 1 7 clk_4hz $end
$var reg 1 8 clk_2hz $end
$var reg 1 9 ledState $end
$var reg 8 : mem [7:0] $end
$scope module ps1 $end
$var wire 1 ' clk_in $end
$var wire 1 7 clk_out $end
$var reg 23 ; counter [22:0] $end
$upscope $end
$scope module twi1 $end
$var wire 8 < dataOut [7:0] $end
$var wire 1 % scl $end
$var wire 1 ( sdaIn $end
$var reg 3 = bitCounter [2:0] $end
$var reg 8 > dataIn [7:0] $end
$var reg 8 ? dataRead [7:0] $end
$var reg 8 @ dataToWrite [7:0] $end
$var reg 1 A hasValidStartBit $end
$var reg 1 B hasValidStopBit $end
$var reg 1 C masterRead $end
$var reg 1 . sdaOutEn $end
$var reg 3 D state [2:0] $end
$upscope $end
$scope module twi2 $end
$var wire 8 E dataOut [7:0] $end
$var wire 1 % scl $end
$var wire 1 ( sdaIn $end
$var reg 3 F bitCounter [2:0] $end
$var reg 8 G dataIn [7:0] $end
$var reg 8 H dataRead [7:0] $end
$var reg 8 I dataToWrite [7:0] $end
$var reg 1 J hasValidStartBit $end
$var reg 1 K hasValidStopBit $end
$var reg 1 L masterRead $end
$var reg 1 - sdaOutEn $end
$var reg 3 M state [2:0] $end
$upscope $end
$scope module twi3 $end
$var wire 8 N dataOut [7:0] $end
$var wire 1 % scl $end
$var wire 1 ( sdaIn $end
$var reg 3 O bitCounter [2:0] $end
$var reg 8 P dataIn [7:0] $end
$var reg 8 Q dataRead [7:0] $end
$var reg 8 R dataToWrite [7:0] $end
$var reg 1 S hasValidStartBit $end
$var reg 1 T hasValidStopBit $end
$var reg 1 U masterRead $end
$var reg 1 , sdaOutEn $end
$var reg 3 V state [2:0] $end
$upscope $end
$scope module twiProxy $end
$var wire 1 % hostScl $end
$var wire 1 ( hostSdaIn $end
$var wire 1 3 mirrorScl $end
$var wire 1 + mirrorSdaIn $end
$var wire 1 0 mirrorSdaLow $end
$var wire 1 / hostSdaLow $end
$var reg 1 0 hostToMirror $end
$var reg 1 / mirrorToHost $end
$upscope $end
$scope module uart_clk_div $end
$var wire 1 ' clkIn $end
$var reg 1 6 clkOut $end
$var reg 7 W counter [7:1] $end
$upscope $end
$scope module uart_tx1 $end
$var wire 1 6 clk $end
$var wire 104 X dataStream [103:0] $end
$var wire 8 Y word [7:0] $end
$var wire 1 5 tx $end
$var wire 1 Z nextWord $end
$var wire 1 [ eol $end
$var reg 4 \ counter [4:1] $end
$scope module UART_INST $end
$var wire 1 6 clk $end
$var wire 8 ] wordIn [7:0] $end
$var wire 1 Z nextWord $end
$var reg 8 ^ bufferedPacket [7:0] $end
$var reg 3 _ dataCounter [2:0] $end
$var reg 2 ` state [1:0] $end
$var reg 1 5 tx $end
$upscope $end
$upscope $end
$upscope $end
$upscope $end
$enddefinitions $end
#0
$dumpvars
b0 `
b0 _
bx ^
b1001000 ]
b0 \
0[
1Z
b1001000 Y
b1001000011001010110110001101100011011110010000001010111011011110111001001101100011001000010000100001010 X
b0 W
b0 V
0U
0T
0S
b0 R
b0 Q
b0 P
b0 O
b0 N
b0 M
0L
0K
0J
b0 I
b0 H
b0 G
b0 F
b10001000 E
b0 D
0C
0B
0A
b0 @
b0 ?
b0 >
b0 =
b0 <
b0 ;
b0 :
09
08
07
06
15
04
03
b0 2
b0 1
00
0/
0.
0-
0,
1+
1*
0)
1(
0'
1&
0%
1$
0#
1"
1!
$end
#1
b1 ;
b1 W
1'
1#
#2
0'
0#
#3
b10 W
b10 ;
1'
1#
#4
0'
0#
#5
b11 ;
b11 W
1'
1#
13
1%
#6
0'
0#
#7
b100 W
b100 ;
1'
1#
#8
0'
0#
#9
b101 ;
b101 W
1'
1#
#10
0'
0#
03
0%
#11
b110 W
b110 ;
1'
1#
#12
0'
0#
#13
b111 ;
b111 W
1'
1#
#14
0'
0#
#15
b1000 W
b1000 ;
1'
1#
13
1%
#16
0'
0#
#17
b1001 ;
b1001 W
1'
1#
#18
0'
0#
#19
b1010 W
b1010 ;
1'
1#
#20
0'
0#
03
0%
#21
b1011 ;
b1011 W
1'
1#
#22
0'
0#
#23
b1100 W
b1100 ;
1'
1#
#24
0'
0#
#25
b1101 ;
b1101 W
1'
1#
13
1%
#26
0'
0#
#27
b1110 W
b1110 ;
1'
1#
#28
0'
0#
#29
b1111 ;
b1111 W
1'
1#
#30
0+
0!
10
0(
0"
0'
0#
03
0%
0$
#31
b10000 W
b10000 ;
1'
1#
#32
0'
0#
#33
b10001 ;
b10001 W
1'
1#
#34
0'
0#
#35
b10010 W
b10010 ;
1'
1#
13
1%
#36
0'
0#
#37
b10011 ;
b10011 W
1'
1#
#38
0'
0#
#39
b10100 W
b10100 ;
1'
1#
#40
0'
0#
03
0%
#41
b10101 ;
b10101 W
1'
1#
#42
0'
0#
#43
b10110 W
b10110 ;
1'
1#
#44
0'
0#
#45
b10111 ;
b10111 W
1'
1#
13
1%
#46
0'
0#
#47
b11000 W
b11000 ;
1'
1#
#48
0'
0#
#49
b11001 ;
b11001 W
1'
1#
#50
0'
0#
03
0%
#51
b11010 W
b11010 ;
1'
1#
#52
0'
0#
#53
b11011 ;
b11011 W
1'
1#
#54
0'
0#
#55
b11100 W
b11100 ;
1'
1#
13
1%
#56
0'
0#
#57
b11101 ;
b11101 W
1'
1#
#58
0'
0#
#59
b11110 W
b11110 ;
1'
1#
#60
0'
0#
03
0%
#61
b11111 ;
b11111 W
1'
1#
#62
0'
0#
#63
b100000 W
b100000 ;
1'
1#
#64
0'
0#
#65
b100001 ;
b100001 W
1'
1#
13
1%
#66
0'
0#
#67
b100010 W
b100010 ;
1'
1#
#68
0'
0#
#69
b100011 ;
b100011 W
1'
1#
#70
1+
1!
00
1(
1"
0'
0#
03
0%
1$
#71
b100100 W
b100100 ;
1'
1#
#72
0'
0#
#73
b100101 ;
b100101 W
1'
1#
#74
0'
0#
#75
b100110 W
b100110 ;
1'
1#
13
1%
#76
0'
0#
#77
b100111 ;
b100111 W
1'
1#
#78
0'
0#
#79
b101000 W
b101000 ;
1'
1#
#80
0'
0#
03
0%
#81
b101001 ;
b101001 W
1'
1#
#82
0'
0#
#83
b101010 W
b101010 ;
1'
1#
#84
0'
0#
#85
b101011 ;
b101011 W
1'
1#
13
1%
#86
0'
0#
#87
b101100 W
b101100 ;
1'
1#
#88
0'
0#
#89
b101101 ;
b101101 W
1'
1#
#90
0'
0#
03
0%
#91
b101110 W
b101110 ;
1'
1#
#92
0'
0#
#93
b101111 ;
b101111 W
1'
1#
#94
0'
0#
#95
b110000 W
b110000 ;
1'
1#
13
1%
#96
0'
0#
#97
b110001 ;
b110001 W
1'
1#
#98
0'
0#
#99
b110010 W
b110010 ;
1'
1#
#100
0'
0#
03
0%
#101
b110011 ;
b110011 W
1'
1#
#102
0'
0#
#103
b110100 W
b110100 ;
1'
1#
#104
0'
0#
#105
b110101 ;
b110101 W
1'
1#
13
1%
#106
0'
0#
#107
b110110 W
b110110 ;
1'
1#
#108
0'
0#
#109
b110111 ;
b110111 W
1'
1#
#110
0'
0#
03
0%
#111
b111000 W
b111000 ;
1'
1#
#112
0'
0#
#113
b111001 ;
b111001 W
1'
1#
#114
0'
0#
#115
b111010 W
b111010 ;
1'
1#
13
1%
#116
0'
0#
#117
b111011 ;
b111011 W
1'
1#
#118
0'
0#
#119
b111100 W
b111100 ;
1'
1#
#120
0'
0#
03
0%
#121
b111101 ;
b111101 W
1'
1#
#122
0'
0#
#123
b111110 W
b111110 ;
1'
1#
#124
0'
0#
#125
b111111 ;
b111111 W
1'
1#
13
1%
#126
0'
0#
#127
b1000000 W
b1000000 ;
1'
1#
#128
0'
0#
#129
b1000001 ;
b1000001 W
1'
1#
#130
0'
0#
03
0%
#131
b1000010 W
b1000010 ;
1'
1#
#132
0'
0#
#133
b1000011 ;
b1000011 W
1'
1#
#134
0'
0#
#135
b1000100 W
b1000100 ;
1'
1#
13
1%
#136
0'
0#
#137
05
0Z
b1 `
b1001000 ^
b1000101 ;
b0 W
16
1'
1#
#138
0'
0#
#139
b1 W
b1000110 ;
1'
1#
#140
0'
0#
03
0%
#141
b1000111 ;
b10 W
1'
1#
#142
0'
0#
#143
b11 W
b1001000 ;
1'
1#
#144
0'
0#
#145
b1001001 ;
b100 W
1'
1#
13
1%
#146
0'
0#
#147
b101 W
b1001010 ;
1'
1#
#148
0'
0#
#149
b1001011 ;
b110 W
1'
1#
#150
0(
0"
14
1/
0+
0!
0'
0#
03
0%
0&
#151
b111 W
b1001100 ;
1'
1#
#152
0'
0#
#153
b1001101 ;
b1000 W
1'
1#
#154
0'
0#
#155
b1001 W
b1001110 ;
1'
1#
13
1%
#156
0'
0#
#157
b1001111 ;
b1010 W
1'
1#
#158
0'
0#
#159
b1011 W
b1010000 ;
1'
1#
#160
0'
0#
03
0%
#161
b1010001 ;
b1100 W
1'
1#
#162
0'
0#
#163
b1101 W
b1010010 ;
1'
1#
#164
0'
0#
#165
b1010011 ;
b1110 W
1'
1#
13
1%
#166
0'
0#
#167
b1111 W
b1010100 ;
1'
1#
#168
0'
0#
#169
b1010101 ;
b10000 W
1'
1#
#170
0'
0#
03
0%
#171
b10001 W
b1010110 ;
1'
1#
#172
0'
0#
#173
b1010111 ;
b10010 W
1'
1#
#174
0'
0#
#175
b10011 W
b1011000 ;
1'
1#
13
1%
#176
0'
0#
#177
b1011001 ;
b10100 W
1'
1#
#178
0'
0#
#179
b10101 W
b1011010 ;
1'
1#
#180
0'
0#
03
0%
#181
b1011011 ;
b10110 W
1'
1#
#182
0'
0#
#183
b10111 W
b1011100 ;
1'
1#
#184
0'
0#
#185
b1011101 ;
b11000 W
1'
1#
13
1%
#186
0'
0#
#187
b11001 W
b1011110 ;
1'
1#
#188
0'
0#
#189
b1011111 ;
b11010 W
1'
1#
#190
0'
0#
03
0%
#191
b11011 W
b1100000 ;
1'
1#
#192
0'
0#
#193
b1100001 ;
b11100 W
1'
1#
#194
0'
0#
#195
b11101 W
b1100010 ;
1'
1#
13
1%
#196
0'
0#
#197
b1100011 ;
b11110 W
1'
1#
#198
0'
0#
#199
b11111 W
b1100100 ;
1'
1#
#200
0'
0#
03
0%
#201
b1100101 ;
b100000 W
1'
1#
#202
0'
0#
#203
b100001 W
b1100110 ;
1'
1#
#204
0'
0#
#205
b1100111 ;
b100010 W
1'
1#
13
1%
#206
0'
0#
#207
b100011 W
b1101000 ;
1'
1#
#208
0'
0#
#209
b1101001 ;
b100100 W
1'
1#
#210
0'
0#
03
0%
#211
b100101 W
b1101010 ;
1'
1#
#212
0'
0#
#213
b1101011 ;
b100110 W
1'
1#
#214
0'
0#
#215
b100111 W
b1101100 ;
1'
1#
13
1%
#216
0'
0#
#217
b1101101 ;
b101000 W
1'
1#
#218
0'
0#
#219
b101001 W
b1101110 ;
1'
1#
#220
0'
0#
03
0%
#221
b1101111 ;
b101010 W
1'
1#
#222
0'
0#
#223
b101011 W
b1110000 ;
1'
1#
#224
0'
0#
#225
b1110001 ;
b101100 W
1'
1#
13
1%
#226
0'
0#
#227
b101101 W
b1110010 ;
1'
1#
#228
0'
0#
#229
b1110011 ;
b101110 W
1'
1#
#230
0'
0#
03
0%
#231
b101111 W
b1110100 ;
1'
1#
#232
0'
0#
#233
b1110101 ;
b110000 W
1'
1#
#234
0'
0#
#235
b110001 W
b1110110 ;
1'
1#
13
1%
#236
0'
0#
#237
b1110111 ;
b110010 W
1'
1#
#238
0'
0#
#239
b110011 W
b1111000 ;
1'
1#
#240
1(
1"
04
0/
1+
1!
0'
0#
03
0%
1&
#241
b1111001 ;
b110100 W
1'
1#
#242
0'
0#
#243
b110101 W
b1111010 ;
1'
1#
#244
0'
0#
#245
b1111011 ;
b110110 W
1'
1#
13
1%
#246
0'
0#
#247
b110111 W
b1111100 ;
1'
1#
#248
0'
0#
#249
b1111101 ;
b111000 W
1'
1#
#250
0'
0#
03
0%
#251
b111001 W
b1111110 ;
1'
1#
#252
0'
0#
#253
b1111111 ;
b111010 W
1'
1#
#254
0'
0#
#255
b111011 W
b10000000 ;
1'
1#
13
1%
#256
0'
0#
#257
b10000001 ;
b111100 W
1'
1#
#258
0'
0#
#259
b111101 W
b10000010 ;
1'
1#
#260
0'
0#
03
0%
#261
b10000011 ;
b111110 W
1'
1#
#262
0'
0#
#263
b111111 W
b10000100 ;
1'
1#
#264
0'
0#
#265
b10000101 ;
b1000000 W
1'
1#
13
1%
#266
0'
0#
#267
b1000001 W
b10000110 ;
1'
1#
#268
0'
0#
#269
b10000111 ;
b1000010 W
1'
1#
#270
0'
0#
03
0%
#271
b1000011 W
b10001000 ;
1'
1#
#272
0'
0#
#273
b10001001 ;
b1000100 W
1'
1#
#274
0'
0#
#275
b0 W
06
b10001010 ;
1'
1#
13
1%
#276
0'
0#
#277
b10001011 ;
b1 W
1'
1#
#278
0'
0#
#279
b10 W
b10001100 ;
1'
1#
#280
0'
0#
03
0%
#281
b10001101 ;
b11 W
1'
1#
#282
0'
0#
#283
b100 W
b10001110 ;
1'
1#
#284
0'
0#
#285
b10001111 ;
b101 W
1'
1#
13
1%
#286
0'
0#
#287
b110 W
b10010000 ;
1'
1#
#288
0'
0#
#289
b10010001 ;
b111 W
1'
1#
#290
0'
0#
03
0%
#291
b1000 W
b10010010 ;
1'
1#
#292
0'
0#
#293
b10010011 ;
b1001 W
1'
1#
#294
0'
0#
#295
b1010 W
b10010100 ;
1'
1#
13
1%
#296
0'
0#
#297
b10010101 ;
b1011 W
1'
1#
#298
0'
0#
#299
b1100 W
b10010110 ;
1'
1#
#300
0'
0#
03
0%
#301
b10010111 ;
b1101 W
1'
1#
#302
0'
0#
#303
b1110 W
b10011000 ;
1'
1#
#304
0'
0#
#305
b10011001 ;
b1111 W
1'
1#
13
1%
#306
0'
0#
#307
b10000 W
b10011010 ;
1'
1#
#308
0'
0#
#309
b10011011 ;
b10001 W
1'
1#
#310
0'
0#
03
0%
#311
b10010 W
b10011100 ;
1'
1#
#312
0'
0#
#313
b10011101 ;
b10011 W
1'
1#
#314
0'
0#
#315
b10100 W
b10011110 ;
1'
1#
13
1%
#316
0'
0#
#317
b10011111 ;
b10101 W
1'
1#
#318
0'
0#
#319
b10110 W
b10100000 ;
1'
1#
#320
0'
0#
03
0%
#321
b10100001 ;
b10111 W
1'
1#
#322
0'
0#
#323
b11000 W
b10100010 ;
1'
1#
#324
0'
0#
#325
b10100011 ;
b11001 W
1'
1#
13
1%
#326
0'
0#
#327
b11010 W
b10100100 ;
1'
1#
#328
0'
0#
#329
b10100101 ;
b11011 W
1'
1#
#330
0'
0#
03
0%
#331
b11100 W
b10100110 ;
1'
1#
#332
0'
0#
#333
b10100111 ;
b11101 W
1'
1#
#334
0'
0#
#335
b11110 W
b10101000 ;
1'
1#
13
1%
#336
0'
0#
#337
b10101001 ;
b11111 W
1'
1#
#338
0'
0#
#339
b100000 W
b10101010 ;
1'
1#
#340
0'
0#
03
0%
#341
b10101011 ;
b100001 W
1'
1#
#342
0'
0#
#343
b100010 W
b10101100 ;
1'
1#
#344
0'
0#
#345
b10101101 ;
b100011 W
1'
1#
13
1%
#346
0'
0#
#347
b100100 W
b10101110 ;
1'
1#
#348
0'
0#
#349
b10101111 ;
b100101 W
1'
1#
#350
0'
0#
03
0%
#351
b100110 W
b10110000 ;
1'
1#
#352
0'
0#
#353
b10110001 ;
b100111 W
1'
1#
#354
0'
0#
#355
b101000 W
b10110010 ;
1'
1#
13
1%
#356
0'
0#
#357
b10110011 ;
b101001 W
1'
1#
#358
0'
0#
#359
b101010 W
b10110100 ;
1'
1#
#360
0'
0#
03
0%
#361
b10110101 ;
b101011 W
1'
1#
#362
0'
0#
#363
b101100 W
b10110110 ;
1'
1#
#364
0'
0#
#365
b10110111 ;
b101101 W
1'
1#
13
1%
#366
0'
0#
#367
b101110 W
b10111000 ;
1'
1#
#368
0'
0#
#369
b10111001 ;
b101111 W
1'
1#
#370
0'
0#
03
0%
#371
b110000 W
b10111010 ;
1'
1#
#372
0'
0#
#373
b10111011 ;
b110001 W
1'
1#
#374
0'
0#
#375
b110010 W
b10111100 ;
1'
1#
13
1%
#376
0'
0#
#377
b10111101 ;
b110011 W
1'
1#
#378
0'
0#
#379
b110100 W
b10111110 ;
1'
1#
#380
0'
0#
03
0%
#381
b10111111 ;
b110101 W
1'
1#
#382
0'
0#
#383
b110110 W
b11000000 ;
1'
1#
#384
0'
0#
#385
b11000001 ;
b110111 W
1'
1#
13
1%
#386
0'
0#
#387
b111000 W
b11000010 ;
1'
1#
#388
0'
0#
#389
b11000011 ;
b111001 W
1'
1#
#390
0'
0#
03
0%
#391
b111010 W
b11000100 ;
1'
1#
#392
0'
0#
#393
b11000101 ;
b111011 W
1'
1#
#394
0'
0#
#395
b111100 W
b11000110 ;
1'
1#
13
1%
#396
0'
0#
#397
b11000111 ;
b111101 W
1'
1#
#398
0'
0#
#399
b111110 W
b11001000 ;
1'
1#
#400
0'
0#
03
0%
#401
b11001001 ;
b111111 W
1'
1#
#402
0'
0#
#403
b1000000 W
b11001010 ;
1'
1#
#404
0'
0#
#405
b11001011 ;
b1000001 W
1'
1#
13
1%
#406
0'
0#
#407
b1000010 W
b11001100 ;
1'
1#
#408
0'
0#
#409
b11001101 ;
b1000011 W
1'
1#
#410
0'
0#
03
0%
#411
b1000100 W
b11001110 ;
1'
1#
#412
0'
0#
#413
b10 `
b11001111 ;
b0 W
16
1'
1#
#414
0'
0#
#415
b1 W
b11010000 ;
1'
1#
13
1%
#416
0'
0#
#417
b11010001 ;
b10 W
1'
1#
#418
0'
0#
#419
b11 W
b11010010 ;
1'
1#
#420
0'
0#
03
0%
#421
b11010011 ;
b100 W
1'
1#
#422
0'
0#
#423
b101 W
b11010100 ;
1'
1#
#424
0'
0#
#425
b11010101 ;
b110 W
1'
1#
13
1%
#426
0'
0#
#427
b111 W
b11010110 ;
1'
1#
#428
0'
0#
#429
b11010111 ;
b1000 W
1'
1#
#430
0'
0#
03
0%
#431
b1001 W
b11011000 ;
1'
1#
#432
0'
0#
#433
b11011001 ;
b1010 W
1'
1#
#434
0'
0#
#435
b1011 W
b11011010 ;
1'
1#
13
1%
#436
0'
0#
#437
b11011011 ;
b1100 W
1'
1#
#438
0'
0#
#439
b1101 W
b11011100 ;
1'
1#
#440
0'
0#
03
0%
#441
b11011101 ;
b1110 W
1'
1#
#442
0'
0#
#443
b1111 W
b11011110 ;
1'
1#
#444
0'
0#
#445
b11011111 ;
b10000 W
1'
1#
13
1%
#446
0'
0#
#447
b10001 W
b11100000 ;
1'
1#
#448
0'
0#
#449
b11100001 ;
b10010 W
1'
1#
#450
0'
0#
03
0%
#451
b10011 W
b11100010 ;
1'
1#
#452
0'
0#
#453
b11100011 ;
b10100 W
1'
1#
#454
0'
0#
#455
b10101 W
b11100100 ;
1'
1#
13
1%
#456
0'
0#
#457
b11100101 ;
b10110 W
1'
1#
#458
0'
0#
#459
b10111 W
b11100110 ;
1'
1#
#460
0'
0#
03
0%
#461
b11100111 ;
b11000 W
1'
1#
#462
0'
0#
#463
b11001 W
b11101000 ;
1'
1#
#464
0'
0#
#465
b11101001 ;
b11010 W
1'
1#
13
1%
#466
0'
0#
#467
b11011 W
b11101010 ;
1'
1#
#468
0'
0#
#469
b11101011 ;
b11100 W
1'
1#
#470
0'
0#
03
0%
#471
b11101 W
b11101100 ;
1'
1#
#472
0'
0#
#473
b11101101 ;
b11110 W
1'
1#
#474
0'
0#
#475
b11111 W
b11101110 ;
1'
1#
13
1%
#476
0'
0#
#477
b11101111 ;
b100000 W
1'
1#
#478
0'
0#
#479
b100001 W
b11110000 ;
1'
1#
#480
0'
0#
03
0%
#481
b11110001 ;
b100010 W
1'
1#
#482
0'
0#
#483
b100011 W
b11110010 ;
1'
1#
#484
0'
0#
#485
b11110011 ;
b100100 W
1'
1#
13
1%
#486
0'
0#
#487
b100101 W
b11110100 ;
1'
1#
#488
0'
0#
#489
b11110101 ;
b100110 W
1'
1#
#490
0'
0#
03
0%
#491
b100111 W
b11110110 ;
1'
1#
#492
0'
0#
#493
b11110111 ;
b101000 W
1'
1#
#494
0'
0#
#495
b101001 W
b11111000 ;
1'
1#
13
1%
#496
0'
0#
#497
b11111001 ;
b101010 W
1'
1#
#498
0'
0#
#499
b101011 W
b11111010 ;
1'
1#
#500
0'
0#
03
0%
#501
b11111011 ;
b101100 W
1'
1#
#502
0'
0#
#503
b101101 W
b11111100 ;
1'
1#
#504
0'
0#
#505
b11111101 ;
b101110 W
1'
1#
13
1%
#506
0'
0#
#507
b101111 W
b11111110 ;
1'
1#
#508
0'
0#
#509
b11111111 ;
b110000 W
1'
1#
#510
0'
0#
03
0%
#511
b110001 W
b100000000 ;
1'
1#
#512
0'
0#
#513
b100000001 ;
b110010 W
1'
1#
#514
0'
0#
#515
b110011 W
b100000010 ;
1'
1#
13
1%
#516
0'
0#
#517
b100000011 ;
b110100 W
1'
1#
#518
0'
0#
#519
b110101 W
b100000100 ;
1'
1#
#520
0'
0#
03
0%
#521
b100000101 ;
b110110 W
1'
1#
#522
0'
0#
#523
b110111 W
b100000110 ;
1'
1#
#524
0'
0#
#525
b100000111 ;
b111000 W
1'
1#
13
1%
#526
0'
0#
#527
b111001 W
b100001000 ;
1'
1#
#528
0'
0#
#529
b100001001 ;
b111010 W
1'
1#
#530
0'
0#
03
0%
#531
b111011 W
b100001010 ;
1'
1#
#532
0'
0#
#533
b100001011 ;
b111100 W
1'
1#
#534
0'
0#
#535
b111101 W
b100001100 ;
1'
1#
13
1%
#536
0'
0#
#537
b100001101 ;
b111110 W
1'
1#
#538
0'
0#
#539
b111111 W
b100001110 ;
1'
1#
#540
0'
0#
03
0%
#541
b100001111 ;
b1000000 W
1'
1#
#542
0'
0#
#543
b1000001 W
b100010000 ;
1'
1#
#544
0'
0#
#545
b100010001 ;
b1000010 W
1'
1#
13
1%
#546
0'
0#
#547
b1000011 W
b100010010 ;
1'
1#
#548
0'
0#
#549
b100010011 ;
b1000100 W
1'
1#
#550
0'
0#
03
0%
#551
b0 W
06
b100010100 ;
1'
1#
#552
0'
0#
#553
b100010101 ;
b1 W
1'
1#
#554
0'
0#
#555
b10 W
b100010110 ;
1'
1#
13
1%
#556
0'
0#
#557
b100010111 ;
b11 W
1'
1#
#558
0'
0#
#559
b100 W
b100011000 ;
1'
1#
#560
0'
0#
03
0%
#561
b100011001 ;
b101 W
1'
1#
#562
0'
0#
#563
b110 W
b100011010 ;
1'
1#
#564
0'
0#
#565
b100011011 ;
b111 W
1'
1#
13
1%
#566
0'
0#
#567
b1000 W
b100011100 ;
1'
1#
#568
0'
0#
#569
b100011101 ;
b1001 W
1'
1#
#570
0'
0#
03
0%
#571
b1010 W
b100011110 ;
1'
1#
#572
0'
0#
#573
b100011111 ;
b1011 W
1'
1#
#574
0'
0#
#575
b1100 W
b100100000 ;
1'
1#
13
1%
#576
0'
0#
#577
b100100001 ;
b1101 W
1'
1#
#578
0'
0#
#579
b1110 W
b100100010 ;
1'
1#
#580
0'
0#
03
0%
#581
b100100011 ;
b1111 W
1'
1#
#582
0'
0#
#583
b10000 W
b100100100 ;
1'
1#
#584
0'
0#
#585
b100100101 ;
b10001 W
1'
1#
13
1%
#586
0'
0#
#587
b10010 W
b100100110 ;
1'
1#
#588
0'
0#
#589
b100100111 ;
b10011 W
1'
1#
#590
0'
0#
03
0%
#591
b10100 W
b100101000 ;
1'
1#
#592
0'
0#
#593
b100101001 ;
b10101 W
1'
1#
#594
0'
0#
#595
b10110 W
b100101010 ;
1'
1#
13
1%
#596
0'
0#
#597
b100101011 ;
b10111 W
1'
1#
#598
0'
0#
#599
b11000 W
b100101100 ;
1'
1#
#600
0'
0#
03
0%
#601
b100101101 ;
b11001 W
1'
1#
#602
0'
0#
#603
b11010 W
b100101110 ;
1'
1#
#604
0'
0#
#605
b100101111 ;
b11011 W
1'
1#
13
1%
#606
0'
0#
#607
b11100 W
b100110000 ;
1'
1#
#608
0'
0#
#609
b100110001 ;
b11101 W
1'
1#
#610
0'
0#
03
0%
#611
b11110 W
b100110010 ;
1'
1#
#612
0'
0#
#613
b100110011 ;
b11111 W
1'
1#
#614
0'
0#
#615
b100000 W
b100110100 ;
1'
1#
13
1%
#616
0'
0#
#617
b100110101 ;
b100001 W
1'
1#
#618
0'
0#
#619
b100010 W
b100110110 ;
1'
1#
#620
0'
0#
03
0%
#621
b100110111 ;
b100011 W
1'
1#
#622
0'
0#
#623
b100100 W
b100111000 ;
1'
1#
#624
0'
0#
#625
b100111001 ;
b100101 W
1'
1#
13
1%
#626
0'
0#
#627
b100110 W
b100111010 ;
1'
1#
#628
0'
0#
#629
b100111011 ;
b100111 W
1'
1#
#630
0'
0#
03
0%
#631
b101000 W
b100111100 ;
1'
1#
#632
0'
0#
#633
b100111101 ;
b101001 W
1'
1#
#634
0'
0#
#635
b101010 W
b100111110 ;
1'
1#
13
1%
#636
0'
0#
#637
b100111111 ;
b101011 W
1'
1#
#638
0'
0#
#639
b101100 W
b101000000 ;
1'
1#
#640
0'
0#
03
0%
#641
b101000001 ;
b101101 W
1'
1#
#642
0'
0#
#643
b101110 W
b101000010 ;
1'
1#
#644
0'
0#
#645
b101000011 ;
b101111 W
1'
1#
13
1%
#646
0'
0#
#647
b110000 W
b101000100 ;
1'
1#
#648
0'
0#
#649
b101000101 ;
b110001 W
1'
1#
#650
0'
0#
03
0%
#651
b110010 W
b101000110 ;
1'
1#
#652
0'
0#
#653
b101000111 ;
b110011 W
1'
1#
#654
0'
0#
#655
b110100 W
b101001000 ;
1'
1#
13
1%
#656
0'
0#
#657
b101001001 ;
b110101 W
1'
1#
#658
0'
0#
#659
b110110 W
b101001010 ;
1'
1#
#660
0'
0#
03
0%
#661
b101001011 ;
b110111 W
1'
1#
#662
0'
0#
#663
b111000 W
b101001100 ;
1'
1#
#664
0'
0#
#665
b101001101 ;
b111001 W
1'
1#
13
1%
#666
0'
0#
#667
b111010 W
b101001110 ;
1'
1#
#668
0'
0#
#669
b101001111 ;
b111011 W
1'
1#
#670
0'
0#
03
0%
#671
b111100 W
b101010000 ;
1'
1#
#672
0'
0#
#673
b101010001 ;
b111101 W
1'
1#
#674
0'
0#
#675
b111110 W
b101010010 ;
1'
1#
13
1%
#676
0'
0#
#677
b101010011 ;
b111111 W
1'
1#
#678
0'
0#
#679
b1000000 W
b101010100 ;
1'
1#
#680
0'
0#
03
0%
#681
b101010101 ;
b1000001 W
1'
1#
#682
0'
0#
#683
b1000010 W
b101010110 ;
1'
1#
#684
0'
0#
#685
b101010111 ;
b1000011 W
1'
1#
13
1%
#686
0'
0#
#687
b1000100 W
b101011000 ;
1'
1#
#688
0'
0#
#689
b1 _
b101011001 ;
b0 W
16
1'
1#
#690
0'
0#
03
0%
#691
b1 W
b101011010 ;
1'
1#
#692
0'
0#
#693
b101011011 ;
b10 W
1'
1#
#694
0'
0#
#695
b11 W
b101011100 ;
1'
1#
13
1%
#696
0'
0#
#697
b101011101 ;
b100 W
1'
1#
#698
0'
0#
#699
b101 W
b101011110 ;
1'
1#
#700
0'
0#
03
0%
#701
b101011111 ;
b110 W
1'
1#
#702
0'
0#
#703
b111 W
b101100000 ;
1'
1#
#704
0'
0#
#705
b101100001 ;
b1000 W
1'
1#
13
1%
#706
0'
0#
#707
b1001 W
b101100010 ;
1'
1#
#708
0'
0#
#709
b101100011 ;
b1010 W
1'
1#
#710
0'
0#
03
0%
#711
b1011 W
b101100100 ;
1'
1#
#712
0'
0#
#713
b101100101 ;
b1100 W
1'
1#
#714
0'
0#
#715
b1101 W
b101100110 ;
1'
1#
13
1%
#716
0'
0#
#717
b101100111 ;
b1110 W
1'
1#
#718
0'
0#
#719
b1111 W
b101101000 ;
1'
1#
#720
0'
0#
03
0%
#721
b101101001 ;
b10000 W
1'
1#
#722
0'
0#
#723
b10001 W
b101101010 ;
1'
1#
#724
0'
0#
#725
b101101011 ;
b10010 W
1'
1#
13
1%
#726
0'
0#
#727
b10011 W
b101101100 ;
1'
1#
#728
0'
0#
#729
b101101101 ;
b10100 W
1'
1#
#730
0'
0#
03
0%
#731
b10101 W
b101101110 ;
1'
1#
#732
0'
0#
#733
b101101111 ;
b10110 W
1'
1#
#734
0'
0#
#735
b10111 W
b101110000 ;
1'
1#
13
1%
#736
0'
0#
#737
b101110001 ;
b11000 W
1'
1#
#738
0'
0#
#739
b11001 W
b101110010 ;
1'
1#
#740
0'
0#
03
0%
#741
b101110011 ;
b11010 W
1'
1#
#742
0'
0#
#743
b11011 W
b101110100 ;
1'
1#
#744
0'
0#
#745
b101110101 ;
b11100 W
1'
1#
13
1%
#746
0'
0#
#747
b11101 W
b101110110 ;
1'
1#
#748
0'
0#
